…
  mutate(
    entry = as.logical(entry),
    vending = as.logical(vending),
    route8 = as.character(route8),
    route9 = as.character(route9),
    route10 = as.character(route10),
    route11 = as.character(route11),
    )

nyc_df
```

    ## # A tibble: 1,868 × 19
    ##    line     station_name station_latitude station_longitude route1 route2 route3
    ##    <chr>    <chr>                   <dbl>             <dbl> <chr>  <chr>  <chr> 
    ##  1 4 Avenue 25th St                  40.7             -74.0 R      <NA>   <NA>  
    ##  2 4 Avenue 25th St                  40.7             -74.0 R      <NA>   <NA>  
    ##  3 4 Avenue 36th St                  40.7             -74.0 N      R      <NA>  
    ##  4 4 Avenue 36th St                  40.7             -74.0 N      R      <NA>  
    ##  5 4 Avenue 36th St                  40.7             -74.0 N      R      <NA>  
    ##  6 4 Avenue 45th St                  40.6             -74.0 R      <NA>   <NA>  
    ##  7 4 Avenue 45th St                  40.6             -74.0 R      <NA>   <NA>  
    ##  8 4 Avenue 45th St                  40.6             -74.0 R      <NA>   <NA>  
    ##  9 4 Avenue 45th St                  40.6             -74.0 R      <NA>   <NA>  
    ## 10 4 Avenue 53rd St                  40.6             -74.0 R      <NA>   <NA>  
    ## # ℹ 1,858 more rows
    ## # ℹ 12 more variables: route4 <chr>, route5 <chr>, route6 <chr>, route7 <chr>,
    ## #   route8 <chr>, route9 <chr>, route10 <chr>, route11 <chr>,
    ## #   entrance_type <chr>, entry <lgl>, vending <lgl>, ada <lgl>
…
``` r
nyc_tidy_df = 
  pivot_longer(
    nyc_df,
    route1:route11,
    names_to = "route_number",
    names_prefix = "route",
    values_to = "route_name")

nyc_tidy_df = drop_na(nyc_tidy_df, route_name)

nyc_tidy_df
```

    ## # A tibble: 4,270 × 10
    ##    line     station_name station_latitude station_longitude entrance_type entry
    ##    <chr>    <chr>                   <dbl>             <dbl> <chr>         <lgl>
    ##  1 4 Avenue 25th St                  40.7             -74.0 Stair         TRUE 
    ##  2 4 Avenue 25th St                  40.7             -74.0 Stair         TRUE 
    ##  3 4 Avenue 36th St                  40.7             -74.0 Stair         TRUE 
    ##  4 4 Avenue 36th St                  40.7             -74.0 Stair         TRUE 
    ##  5 4 Avenue 36th St                  40.7             -74.0 Stair         TRUE 
    ##  6 4 Avenue 36th St                  40.7             -74.0 Stair         TRUE 
    ##  7 4 Avenue 36th St                  40.7             -74.0 Stair         TRUE 
    ##  8 4 Avenue 36th St                  40.7             -74.0 Stair         TRUE 
    ##  9 4 Avenue 45th St                  40.6             -74.0 Stair         TRUE 
    ## 10 4 Avenue 45th St                  40.6             -74.0 Stair         TRUE 
    ## # ℹ 4,260 more rows
    ## # ℹ 4 more variables: vending <lgl>, ada <lgl>, route_number <chr>,
    ## #   route_name <chr>
…
